<svg xmlns="http://www.w3.org/2000/svg" viewBox="0 0 116 60">
  <defs>
    <style>
      .cls-1 {
        fill: #e3e4e5;
      }

      .cls-2 {
        fill: #f60;
      }
    </style>
  </defs>
  <g id="_3V" data-name="3V" transform="translate(-843 -88)">
    <rect id="Rectangle_454" data-name="Rectangle 454" class="cls-1" width="116" height="60" transform="translate(843 88)"/>
    <g id="Group_789" data-name="Group 789">
      <rect id="Rectangle_458" data-name="Rectangle 458" class="cls-2" width="20" height="40" transform="translate(866 98)"/>
      <rect id="Rectangle_457" data-name="Rectangle 457" class="cls-2" width="20" height="40" transform="translate(891 98)"/>
      <rect id="Rectangle_456" data-name="Rectangle 456" class="cls-2" width="20" height="40" transform="translate(916 98)"/>
    </g>
  </g>
</svg>
